FPS 24
file0000.png
file0001.png
file0002.png
file0003.png
file0004.png
file0005.png
file0006.png
file0007.png
file0008.png
file0009.png
file0010.png
file0011.png
file0012.png
file0013.png
file0014.png
file0015.png
file0016.png
file0017.png
file0018.png
file0019.png
file0020.png
file0021.png
file0022.png
file0023.png
file0024.png
file0025.png

